…
1.  **Кластеризовать запросы от устройств к точкам доступа по их именам.
    Определить время появления устройства в зоне радиовидимости и время
    выхода его из нее**

``` r
data_2 %>%
  separate_rows(Probed_ESSIDs, sep=",") %>%
  group_by(Probed_ESSIDs) %>%
  summarise(first_time = min(First_time_seen, na.rm = TRUE),
            last_time = max(Last_time_seen, na.rm = TRUE))
```

    # A tibble: 152 × 3
       Probed_ESSIDs                  first_time          last_time          
       <chr>                          <dttm>              <dttm>             
     1 " podval"                      2023-07-28 10:44:38 2023-07-28 10:44:38
     2 "-D-13-"                       2023-07-28 09:14:42 2023-07-28 10:26:42
     3 "1"                            2023-07-28 10:36:12 2023-07-28 11:56:13
     4 "107"                          2023-07-28 10:29:43 2023-07-28 10:29:43
     5 "531"                          2023-07-28 10:57:04 2023-07-28 10:57:04
     6 "AAAAADVpTWoADwFlRedmi 4X"     2023-07-28 09:34:20 2023-07-28 11:44:40
     7 "AAAAAOB/CC0ADwGkRedmi 3S"     2023-07-28 09:34:20 2023-07-28 11:44:40
     8 "AKADO-D967"                   2023-07-28 10:31:55 2023-07-28 10:31:55
     9 "AQAAAB6zaIoATwEURedmi Note 5" 2023-07-28 10:25:11 2023-07-28 11:51:48
    10 "ASUS"                         2023-07-28 10:31:13 2023-07-28 10:31:13
    # ℹ 142 more rows
…
